```
# A tibble: 6,537 x 12
   sex     age race  juv_fel_count juv_misd_count juv_other_count priors_count c_charge_degree
   <chr> <dbl> <fct>         <dbl>          <dbl>           <dbl>        <dbl> <chr>          
 1 Male     69 Other             0              0               0            0 (F3)           
 2 Male     24 Afri~             0              0               1            4 (F3)           
 3 Male     41 Cauc~             0              0               0           14 (F3)           
 4 Male     43 Other             0              0               0            3 (F3)           
 5 Fema~    39 Cauc~             0              0               0            0 (M1)           
 6 Male     20 Cauc~             0              0               1            0 (F3)           
 7 Fema~    26 Cauc~             0              0               0            0 (F3)           
 8 Male     27 Cauc~             0              0               0            0 (F3)           
 9 Male     23 Afri~             0              0               0            3 (M1)           
10 Fema~    37 Cauc~             0              0               0            0 (M1)           
# ... with 6,527 more rows, and 4 more variables: c_charge_desc <chr>, is_recid <fct>,
#   jail_days <dbl>, age_at_offense <dbl>
…
